<?xml version="1.0" encoding="UTF-8" standalone="no"?>
<svg width="867px" height="101px" viewBox="0 0 867 101" version="1.1" xmlns="http://www.w3.org/2000/svg" xmlns:xlink="http://www.w3.org/1999/xlink">
    <!-- Generator: Sketch 39 (31667) - http://www.bohemiancoding.com/sketch -->
    <title>logo</title>
    <desc>Created with Sketch.</desc>
    <defs></defs>
    <g id="Styleguide" stroke="none" stroke-width="1" fill="none" fill-rule="evenodd">
        <g id="Apps" transform="translate(-252.000000, -123.000000)">
            <g id="Logo/Draft-1" transform="translate(252.000000, 85.000000)">
                <path d="M206.032,137 L238.72,39.944 L215.392,39.944 L203.008,81.416 C199.696,92.504 196.672,104.024 194.224,115.688 L193.792,115.688 C191.488,103.592 188.464,92.504 185.152,80.984 L173.344,39.944 L149.296,39.944 L180.4,137 L206.032,137 Z M306.832,78.104 L271.12,78.104 L271.12,57.944 L308.992,57.944 L308.992,39.944 L249.088,39.944 L249.088,137 L311.008,137 L311.008,119 L271.12,119 L271.12,95.96 L306.832,95.96 L306.832,78.104 Z M322.24,132.536 C327.712,135.56 338.656,138.44 349.744,138.44 C376.384,138.44 388.912,124.616 388.912,108.344 C388.912,94.664 380.848,85.736 363.712,79.4 C351.184,74.648 345.712,71.912 345.712,65.72 C345.712,60.68 350.32,56.36 359.824,56.36 C369.328,56.36 376.24,59.096 380.128,60.968 L385.024,43.256 C379.264,40.664 371.2,38.36 360.256,38.36 C337.36,38.36 323.536,51.032 323.536,67.592 C323.536,81.704 334.048,90.632 350.176,96.248 C361.84,100.424 366.448,103.88 366.448,109.928 C366.448,116.264 361.12,120.44 351.04,120.44 C341.68,120.44 332.608,117.416 326.704,114.392 L322.24,132.536 Z M422.464,137 L444.496,137 L444.496,58.376 L470.992,58.376 L470.992,39.944 L396.4,39.944 L396.4,58.376 L422.464,58.376 L422.464,137 Z M482.656,39.944 L482.656,137 L504.688,137 L504.688,39.944 L482.656,39.944 Z M604.768,81.416 L568.624,81.416 L568.624,98.552 L583.6,98.552 L583.6,118.856 C581.872,119.72 577.84,120.296 572.8,120.296 C554.8,120.296 542.272,108.488 542.272,88.472 C542.272,67.448 556.096,57.08 574.384,57.08 C585.04,57.08 591.664,58.952 596.992,61.256 L601.6,43.688 C596.848,41.384 587.2,38.936 574.672,38.936 C542.848,38.936 519.376,57.368 519.232,89.624 C519.088,103.88 523.984,116.552 532.912,124.904 C541.84,133.544 554.656,138.008 572.368,138.008 C585.184,138.008 598,134.84 604.768,132.536 L604.768,81.416 Z M621.904,39.944 L621.904,137 L643.936,137 L643.936,39.944 L621.904,39.944 Z M662.8,39.944 L662.8,94.088 C662.8,125.048 677.2,138.584 701.68,138.584 C727.024,138.584 742.144,124.328 742.144,94.376 L742.144,39.944 L720.256,39.944 L720.256,95.816 C720.256,112.952 713.92,121.016 702.4,121.016 C691.168,121.016 684.832,112.52 684.832,95.816 L684.832,39.944 L662.8,39.944 Z M844.672,137 L866.128,137 L860.8,39.944 L832.144,39.944 L821.776,72.2 C818.608,83 815.296,95.816 812.56,107.048 L812.128,107.048 C809.968,95.672 806.944,83.576 803.92,72.344 L794.416,39.944 L765.184,39.944 L758.992,137 L779.296,137 L781.024,100.136 C781.744,88.04 782.176,73.064 782.752,59.96 L783.04,59.96 C785.344,72.632 788.656,86.456 791.824,97.832 L802.192,135.416 L819.328,135.416 L831.136,97.544 C834.88,86.168 838.912,72.344 841.936,59.96 L842.368,59.96 C842.368,74.072 842.8,88.184 843.232,99.848 L844.672,137 Z" id="VESTIGIUM" fill="#384E54"></path>
                <rect id="Rectangle-18" fill="#3DADA4" x="55" y="116" width="22" height="20"></rect>
                <rect id="Rectangle-18-Copy-9" fill="#3CB0CB" x="55" y="39" width="22" height="20"></rect>
                <rect id="Rectangle-18-Copy-4" fill="#7BD7CF" x="28" y="116" width="22" height="20"></rect>
                <rect id="Rectangle-18-Copy-12" fill="#7BD7CF" x="0" y="116" width="22" height="20"></rect>
                <rect id="Rectangle-18-Copy-10" fill="#51C6DA" x="28" y="39" width="22" height="20"></rect>
                <rect id="Rectangle-18-Copy-2" fill="#C5CED1" x="28" y="91" width="22" height="20"></rect>
                <rect id="Rectangle-18-Copy-5" fill="#C5CED1" x="55" y="64" width="22" height="20"></rect>
                <rect id="Rectangle-18-Copy-14" fill="#9DCB50" x="0" y="64" width="22" height="20"></rect>
                <rect id="Rectangle-18-Copy-15" fill="#FF7368" x="0" y="89" width="22" height="20"></rect>
                <rect id="Rectangle-18-Copy-11" fill="#3498BC" x="82" y="39" width="22" height="20"></rect>
                <rect id="Rectangle-18-Copy-3" fill="#76AA1F" x="82" y="64" width="22" height="20"></rect>
                <rect id="Rectangle-18-Copy-8" fill="#BB4C43" x="82" y="89" width="22" height="20"></rect>
            </g>
        </g>
    </g>
</svg>