<?xml version="1.0" encoding="UTF-8" standalone="no"?>
<svg width="72px" height="72px" viewBox="0 0 72 72" version="1.1" xmlns="http://www.w3.org/2000/svg" xmlns:xlink="http://www.w3.org/1999/xlink">
    <!-- Generator: Sketch 39.1 (31720) - http://www.bohemiancoding.com/sketch -->
    <title>sm-icon</title>
    <desc>Created with Sketch.</desc>
    <defs></defs>
    <g id="Styleguide" stroke="none" stroke-width="1" fill="none" fill-rule="evenodd">
        <g id="Apps" transform="translate(-1317.000000, -1071.000000)">
            <g id="Scores-Matter" transform="translate(347.000000, 1031.000000)">
                <g id="sm-icon" transform="translate(970.000000, 40.000000)">
                    <ellipse id="Oval-1" fill="#FFFFFF" cx="36" cy="36" rx="36" ry="36"></ellipse>
                    <path d="M52.4930732,23.8153268 C48.6250639,18.5314247 42.396123,15.0865 35.3462,15.0865 C23.6052,15.0865 14.0862,24.6045 14.0862,36.3465 C14.0862,48.0875 23.6052,57.6065 35.3462,57.6065 C47.0882,57.6065 56.6062,48.0875 56.6062,36.3465 L63.6932,36.3465 C63.6932,44.1585 60.5322,51.2325 55.4202,56.3595 C50.3022,61.4935 43.2262,64.6755 35.4072,64.6925 L35.3462,64.6925 C27.5342,64.6925 20.4602,61.5325 15.3332,56.4205 C10.1852,51.2885 7.0002,44.1895 7.0002,36.3465 C7.0002,28.5035 10.1852,21.4045 15.3332,16.2725 C20.4602,11.1605 27.5342,7.9995 35.3462,7.9995 C35.3672,7.9995 35.3872,8.0005 35.4072,8.0005 C43.2262,8.0175 50.3022,11.1995 55.4202,16.3335 C56.1801499,17.0944499 56.8951058,17.9003938 57.5640678,18.7443332 L63.6929,12.6155 L68.7039,17.6265 L35.4349,50.8955 L35.3469,50.8065 L35.1349,50.5955 L30.4239,45.8845 L20.8469,36.3075 L25.8579,31.2955 L35.3469,40.7845 L35.4349,40.8735 L52.4930732,23.8153268 Z" id="Combined-Shape" fill="#87BA32"></path>
                </g>
            </g>
        </g>
    </g>
</svg>