<?xml version="1.0" encoding="UTF-8" standalone="no"?>
<svg width="72px" height="72px" viewBox="0 0 72 72" version="1.1" xmlns="http://www.w3.org/2000/svg" xmlns:xlink="http://www.w3.org/1999/xlink">
    <!-- Generator: Sketch 39.1 (31720) - http://www.bohemiancoding.com/sketch -->
    <title>ypi-icon</title>
    <desc>Created with Sketch.</desc>
    <defs></defs>
    <g id="Styleguide" stroke="none" stroke-width="1" fill="none" fill-rule="evenodd">
        <g id="Apps" transform="translate(-400.000000, -381.000000)">
            <g id="YPI" transform="translate(0.000000, 360.000000)">
                <g id="ypi-icon" transform="translate(400.000000, 21.000000)">
                    <circle id="Oval-1" fill="#FFFFFF" cx="36" cy="36" r="36"></circle>
                    <path d="M59.2501,19.6449 C55.7661,14.8749 50.8291,11.2359 45.0901,9.3759 C42.3361,8.4839 39.3981,7.9999 36.3461,7.9999 C33.2951,7.9999 30.3571,8.4839 27.6031,9.3759 C21.8641,11.2359 16.9271,14.8749 13.4431,19.6449 C10.0321,24.3139 8.0141,30.0639 8.0011,36.2849 L8.0371,36.2849 C10.9501,31.3759 15.1041,27.2889 20.0661,24.4569 C23.4561,22.5219 27.2241,21.1719 31.2321,20.5459 C32.8991,20.2859 34.6071,20.1499 36.3461,20.1499 C38.0861,20.1499 39.7941,20.2859 41.4601,20.5459 C45.4681,21.1719 49.2361,22.5219 52.6271,24.4569 C57.5891,27.2889 61.7431,31.3759 64.6561,36.2849 L64.6921,36.2849 C64.6791,30.0639 62.6601,24.3139 59.2501,19.6449" id="top" fill="#3DADA4"></path>
                    <path d="M52.7208,48.1821 C49.3168,50.1401 45.5288,51.5061 41.4978,52.1401 C39.8198,52.4041 38.0988,52.5421 36.3468,52.5421 C34.5938,52.5421 32.8738,52.4041 31.1948,52.1401 C27.1638,51.5061 23.3768,50.1401 19.9718,48.1821 C15.0308,45.3401 10.8968,41.2521 7.9998,36.3461 C7.9998,42.5561 9.9978,48.2981 13.3848,52.9681 C16.8648,57.7671 21.8108,61.4321 27.5668,63.3051 C30.3318,64.2041 33.2818,64.6931 36.3468,64.6931 C39.4108,64.6931 42.3608,64.2041 45.1258,63.3051 C50.8818,61.4321 55.8288,57.7671 59.3078,52.9681 C62.6948,48.2981 64.6928,42.5561 64.6928,36.3461 C61.7958,41.2521 57.6618,45.3401 52.7208,48.1821" id="bottom" fill="#3DADA4"></path>
                    <path d="M49.205,36.2854 C49.192,33.4664 48.27,30.8624 46.719,28.7494 C45.138,26.5934 42.902,24.9494 40.303,24.1094 C39.056,23.7064 37.727,23.4864 36.346,23.4864 C34.966,23.4864 33.637,23.7064 32.39,24.1094 C29.791,24.9494 27.555,26.5934 25.974,28.7494 C24.423,30.8624 23.501,33.4664 23.488,36.2854 C23.488,36.3054 23.486,36.3264 23.486,36.3464 C23.486,39.1544 24.389,41.7494 25.916,43.8644 C27.493,46.0494 29.739,47.7174 32.355,48.5714 L34.064,43.3094 C32.572,42.8194 31.291,41.8624 30.392,40.6114 C29.528,39.4094 29.018,37.9364 29.018,36.3464 C29.018,36.3264 29.019,36.3054 29.019,36.2854 C29.032,34.6834 29.563,33.2034 30.45,32.0014 C31.353,30.7804 32.625,29.8474 34.1,29.3714 C34.808,29.1424 35.563,29.0174 36.346,29.0174 C37.13,29.0174 37.885,29.1424 38.593,29.3714 C40.068,29.8484 41.34,30.7804 42.243,32.0014 C43.13,33.2034 43.661,34.6834 43.674,36.2854 C43.674,36.3054 43.675,36.3264 43.675,36.3464 C43.675,37.9364 43.165,39.4094 42.301,40.6114 C41.402,41.8624 40.121,42.8194 38.629,43.3094 L40.338,48.5714 C42.954,47.7174 45.2,46.0494 46.777,43.8644 C48.304,41.7494 49.207,39.1544 49.207,36.3464 C49.207,36.3264 49.205,36.3054 49.205,36.2854" id="iris" fill="#3DADA4"></path>
                </g>
            </g>
        </g>
    </g>
</svg>